@startuml
skinparam componentStyle rectangle

[ska-oso-scripting] <-- [Observing Script] : uses
[ska-tmc-cdm] <-- [Observing Script] : uses
[ska-oso-pdm] <-- [Observing Script] : uses

[Observing Script] <- [OET] : executes
[Observing Script] --> [CentralNode] : controls
note on link
Resource
Allocation
(JSON)
end note

[Observing Script] --> [SubArrayNode] : controls
note on link
Configuration
and Control
(JSON)
end note

@enduml